91857790
76709391

54212313

19829227

70058727

19237922

35127841

48100156

15349915

54273588

42958283

56818467

63423054
00954853

43103717

94966796
69688965
74375107

79264798
05499830

12812054

09633478

75607317

98182620

28687097

