7kIs2Mdz-65951032

ZnyVtUz4-97159825

hAc1OIsh-03724315
RJVW3MPv-08606201

7bMTe6i2-83591104

_tWnRUYk-53475243

SgkO2rI6-73804690

juTDb9mx-75546491

q5SIyN18-62958628

vaPzzSZJ-29672375

Gcp8ex4M-47915291

MriSYRWX-62281273

pd_Nwz62-97133929

WxkJym5p-09026874

RYio3O0D-16949178

YmRFoEdu-03919844
wtAn6hEx-15688190

ZVWyGLjz-96277116

t9paXAvT-70914438

yae3p4Tt-32291021

38B9ZHF9-78967714

8tE9JrX9-99448307

tOYWIdU0-97845380
GzhaPQMX-62577997

8nb6aQo9-01942144

ErlN3Reo-81413094

7QdIF3qs-88914563

aTxqIaAy-05591591
