20

4
za_OendW-19011346
HVLkxrPs-49624285
5tIZtNBn-64378943
HAgUlnxb-49289104
1 3 4 2
1 4 2 3
1 3 4 2
3 2 1 4
3 4 2 1
3 4 1 2
4 2 3 1
1 2 3 4

3
ckf2O40d-75520763
pLNFJnSU-50112773
ZlhGjR6t-61237023
1 3 2
3 1 2
2 3 1
2 3 1
1 2 3
2 3 1
3 2 1

4
AW8KstgO-19628803
9HJSkNJ2-96758651
kq0KCwju-35659939
Q2mntvJ4-29907830
2 4 1 3
4 1 3 2
1 2 3 4
2 4 3 1
1 4 2 3
1 3 4 2
1 2 3 4

5
n4JX1oFb-20921817
PLghHBSe-52039311
kgthHVo5-58280247
nSfAS3GA-89616808
e2xC0BuL-69782806
1 3 4 5 2
2 4 1 3 5
2 1 4 3 5
5 3 4 2 1
2 5 1 3 4
3 2 4 1 5
1 2 3 5 4
1 5 2 4 3

3
Q5M6Vl28-43242541
5CIxpoHT-14515548
lQ2jku7o-21013600
3 1 2
1 2 3
2 3 1
1 2 3
1 3 2
2 1 3
3 1 2

5
lXNW7d8q-03275370
wdYK68Ei-97208056
K7WrTThm-70345843
8er1U5TT-64100191
WFOEFvra-82966171
3 2 5 4 1
2 1 3 5 4
3 5 4 2 1
1 2 3 4 5
4 1 2 3 5
2 1 3 4 5
5 3 2 4 1
1 2 3 4 5

4
STrK1RFM-29666953
S50EMMk6-34795606
K0yzdJeK-99738573
WVSPQiJK-73927955
3 4 2 1
4 3 1 2
4 3 1 2
3 4 2 1
4 2 3 1
4 1 3 2
4 2 1 3

3
4JsOf6xw-86738288
ngMaLaQb-34435076
t1mDA0dh-37940653
2 1 3
2 3 1
3 1 2
2 1 3
1 2 3
1 2 3
2 1 3

4
pXT9RpGI-42048283
nQ_BNM5o-06510885
8ryVqC17-75612644
P0K94fCY-88398062
1 4 3 2
3 4 1 2
3 1 4 2
3 2 4 1
1 2 4 3
3 1 4 2
4 1 3 2
1 2 3 4

3
__aLKmsC-39550802
M9gs1e3x-73355869
XY323sAg-19764224
2 3 1
3 1 2
1 3 2
3 2 1
3 1 2
3 1 2
2 3 1

5
2n9S2aCY-74423196
cNh5JTJW-77353187
oRfliuOc-64811416
S9X0Qs_r-95730347
s3Z_jTFN-89829173
3 5 4 2 1
1 5 4 2 3
1 3 4 5 2
5 1 4 2 3
5 2 1 4 3
3 2 1 4 5
5 3 4 1 2
3 1 5 2 4

3
Lrjbz4jV-94834208
mD77L5hF-24699278
01XTvgYJ-03703412
3 1 2
2 1 3
2 3 1
2 1 3
3 1 2
3 1 2
3 1 2
2 1 3

4
rOzd42B2-40477515
nb6sSPkf-16761509
FPr4_Ckn-66479962
8UUHtf8K-59984200
3 2 4 1
2 3 1 4
1 3 4 2
1 2 3 4
4 3 1 2
4 2 3 1
4 1 2 3
2 4 1 3

4
sXX_r8Ps-12202756
MDhstMRx-32988111
NtznyjxU-37904379
e3IlTpdl-14154635
3 2 4 1
4 2 1 3
1 3 2 4
1 4 3 2
4 3 2 1
4 3 1 2
3 4 1 2
2 3 1 4

3
H_Rn7c4r-72023963
YEKX_7Cs-43515446
Ra0nWBya-41351767
2 1 3
1 3 2
3 2 1
1 2 3
2 1 3
2 3 1
3 2 1

5
wiw_JM2R-31838848
JsLRpLHL-43501829
o8ras2I8-24797700
SCighOJ3-06590651
QzHIDVyG-64461479
2 3 1 4 5
5 1 3 4 2
1 5 4 3 2
4 1 2 3 5
2 4 5 1 3
2 5 3 1 4
1 4 2 5 3

5
CC3ipT4G-31050251
Mukt3JM_-94216877
BOjkF2HO-06136422
0YnUmaQa-77590453
cMs_PA5K-65784450
3 5 1 4 2
3 4 5 2 1
1 4 3 5 2
4 5 3 2 1
3 2 4 1 5
3 5 2 4 1
2 3 1 4 5
2 1 4 5 3

4
8u3AK_BV-64226538
0CpXtYO1-14728233
8Iy3GcG0-09547328
oj4Ln_z2-60409381
1 3 2 4
3 1 2 4
1 3 2 4
3 2 4 1
1 3 4 2
3 4 1 2
4 3 1 2
2 1 4 3

4
4imlqov0-25126328
TKCI0sCc-07594611
6vB6_qnM-55368716
YCqTsLkr-92816755
1 4 2 3
1 2 3 4
1 3 4 2
2 1 4 3
1 3 4 2
1 3 2 4
1 2 3 4

3
u6R8g4jb-66563375
ZFOV0rEp-58001898
Vl86Yfhq-22097916
2 3 1
3 2 1
3 1 2
3 2 1
2 3 1
3 1 2
1 3 2
