21

2
John Doe
Jane Smith
1 2
2 1
2 1
1 2
2 1

4
John Doe
Jane Smith
Butter Dog
Michael
1 2 3 4
2 1 4 3
2 1 3 4
1 2 4 3
2 1 3 4

4
Mosnert
Rick
Butter Dog
Michael
4 2 3 1
2 1 4 3
4 1 3 2
3 2 4 1
4 1 3 2

4
Mosnert
Rick
Butter Dog
Michael
1 2 3 4
3 1 4 2
2 1 3 4
1 2 4 3
3 1 2 4
3 1 2 4
3 4 3 1

4
Mosnert
Rick
Butter Dog
Michael
1 2 3 4
2 1 4 3
2 1 3 4
1 2 4 3
2 1 3 4
2 4 1 3

2
Mosnert
Butter Dog
1 2
2 1
2 1
1 2
1 2

1
Mosnert
1
1
1
1
1

2
Mosnert
Butter Dog
1 2
2 1
2 1
1 2
1 2
2 1

4
Mosnert
Rick
Butter Dog
Michael
4 2 3 1
3 1 4 2
4 1 3 2
3 2 4 1
4 1 3 2
3 2 1 4

4
Mosnert
Rick
Butter Dog
Michael
1 2 3 4
2 1 4 3
3 1 4 2
4 2 3 1

4
Mosnert
Rick
Butter Dog
Michael
1 2 3 4
2 1 4 3
1 3 4 2
2 4 3 1

4
Mosnert
Rick
Butter Dog
Michael
1 2 3 4
2 1 4 3

4
Mosnert
Rick
Butter Dog
Michael
1 2 3 4
1 2 4 3
2 1 3 4
2 3 4 1

3
Mosnert
Rick
Butter Dog
1 3 2
2 1 3
3 2 1
2 3 1
3 1 2

5
Mosnert
Rick
Butter Dog
Michael
Frankie
5 3 2 1 4
2 5 1 3 4
1 4 5 3 2
2 1 4 5 3
5 4 1 3 2
4 3 2 5 1

6
Mosnert
Rick
Butter Dog
Michael
Frankie
Jake
3 4 2 5 6 1
1 6 5 3 2 4
3 1 4 2 6 5
2 4 6 5 1 3
1 3 2 6 5 4

5
Mosnert
Rick
Butter Dog
Michael
Frankie
2 4 3 5 1
5 1 3 2 4
1 2 5 4 3
3 4 1 5 2
2 1 5 3 4

4
Mosnert
Rick
Butter Dog
Michael
1 2 3 4
2 3 4 1
3 4 2 1
4 3 2 1
1 2 4 3

4
Mosnert
Rick
Butter Dog
Michael
4 2 3 1
4 2 3 1
2 4 1 3
4 2 1 3
3 2 4 1
1 2 4 3
1 3 4 2
1 2 4 3
4 3 2 1

6
Mosnert
Rick
Butter Dog
Michael
Frankie
Jake
5 2 6 4 3 1
1 4 6 3 2 5
5 3 2 1 4 6
2 5 3 6 4 1
3 6 1 4 2 5
2 1 4 3 6 5

5
Mosnert
Rick
Butter Dog
Michael
Frankie
3 2 4 1 5
1 5 4 3 2
2 1 4 5 3
2 4 5 1 3
3 4 2 1 5
1 3 2 4 5
1 5 2 4 3
5 2 3 5 1
