20

5
_AopZwj_-83730512
btUPc47W-69778940
No2pmrdz-00990382
1zOPY9Ne-58774959
fBpkZNlX-63146999
2 4 1 3 5
4 1 2 5 3
1 2 5 4 3
4 1 2 5 3
1 2 5 4 3
5 4 1 3 2

3
VrsJPcTQ-29120664
HXCdzfY4-18619124
QX_V_gxO-19110475
2 1 3
2 3 1
3 1 2
3 1 2
2 1 3

10
7A_LGfik-74554748
cu1NRfHE-05888537
1MtsuUGe-33925761
7mJZkLbb-76717090
LgWa3nbA-91818579
eyRXBejs-33837553
5acnBusA-54528663
40ZmdywD-61086735
rtCsoAQp-26351915
MzwHJcS0-53629843
5 4 10 7 2 3 1 8 6 9
4 5 6 3 1 7 8 10 9 2
5 1 8 9 6 3 4 7 10 2
3 2 8 1 9 5 4 7 10 6
8 9 3 6 7 4 2 1 10 5

5
42jdFJ4Y-37511399
SQBDIb3U-75821976
2K14qINa-59948777
JYR1vOU3-15029098
WopotHr_-45231757
1 4 3 2 5
5 3 1 4 2
2 5 3 4 1
2 5 1 4 3
1 3 2 5 4
4 3 2 5 1
5 4 2 1 3

12
DvmpafZg-24383495
_TjGeeiy-49504030
s_euJ2JV-23491250
fTGjHFmv-66492699
FkE0D5uO-57439578
p0VfUMqy-85701798
9QXVP871-69095714
qyCCKRP2-64081758
XvFd0XeO-21156281
IbMN_WOh-09670210
AYLaTZui-13127411
KMCZ4o_j-60693855
5 11 12 6 10 4 1 8 9 3 7 2
3 2 11 12 6 1 8 9 5 7 4 10
6 10 8 4 1 9 5 2 7 3 12 11
5 3 6 11 7 12 8 9 4 10 1 2
1 3 2 4 6 5 11 8 9 10 12 7
8 2 7 9 3 12 10 5 4 6 1 11

8
VUVmEwBo-42613900
QiVurjwq-40509193
mXx5pih_-85474324
sQOWqWFn-93536187
JoRshIyh-33198028
EeJNFTbz-84600317
019LflRp-67741713
netfWYcT-75690555
6 8 1 5 3 7 4 2
4 3 8 7 2 1 5 6
4 6 3 2 8 7 1 5
1 2 3 4 7 8 5 6
3 7 2 5 8 6 4 1

8
CHsx_n5K-29655049
JKIfbSk9-89095557
zfsB9cfG-62753679
k_BU1szu-70207331
ABkzRSxJ-81128724
CX9WCh2l-76085383
S2M74SKH-54035964
z1Ia3NhY-12673329
7 3 4 6 2 1 5 8
2 1 4 6 8 7 5 3
8 1 3 2 4 5 6 7
1 7 8 4 3 2 6 5
1 5 3 7 2 6 4 8

12
vz8DH2Xq-83918969
fkQbRi_b-20474953
fKINjhDG-44935039
JFtptQFh-93605222
2JjXDVks-97941715
ND6ljrVa-99535669
qUCIo5_O-55687353
zXuOtEq0-88263880
lgSdFCTt-92226327
2XOl5PFU-06371126
MDKO5_oY-20043481
rjaeFxxw-22722165
2 11 3 12 1 9 10 6 4 8 5 7
10 3 4 8 6 2 9 7 1 11 5 12
10 12 3 4 8 2 5 7 11 9 6 1
6 11 3 8 4 1 12 10 7 9 2 5
2 9 10 11 1 7 8 6 5 4 3 12
11 3 6 2 5 8 12 9 7 4 10 1

7
ykrLqXP3-09002701
Vj_YrJ8M-13538250
eONNZ3IO-18578738
nFpsRInx-24330223
OQiT489E-65247590
wav3EdDd-35490722
Hr1g0K36-66200231
3 7 5 4 2 6 1
2 4 3 1 7 6 5
1 7 6 2 4 3 5
5 7 2 1 6 4 3
5 7 1 3 2 4 6
2 7 4 5 6 3 1

12
zC3aVzj7-70394884
x6pTdPOv-99262087
9og3OckI-06020148
EO8ZuMxI-77145674
BR3DkSKq-94600819
HDKT2mop-68784166
mxTsqA6v-70883327
n2gAYkhe-20466363
ovcK2vhv-93543633
sqFAirpQ-01866240
SjVFSeo0-93536097
mvwUUVC0-13592055
11 2 3 10 9 8 5 6 4 7 1 12
7 6 5 4 8 1 10 12 9 3 2 11
7 6 12 3 5 10 4 2 11 8 1 9
5 10 7 11 3 12 2 8 4 9 1 6
7 3 12 5 6 1 2 11 4 8 9 10
8 1 10 11 4 2 5 3 6 7 12 9

9
NCIrNtAt-00991633
EhdxNlsK-76111094
WFXXFZBs-01138592
YtajMcjP-85700835
SeOmUINJ-10913399
pGDgdSyE-02959698
vnPzz_IC-11412840
4lHgZKqc-23575675
douC4bHY-40943578
3 9 2 6 7 4 5 1 8
5 9 2 7 3 4 8 1 6
4 3 8 2 7 5 1 9 6
6 4 3 7 8 1 9 5 2
1 7 3 4 6 5 2 9 8
8 2 6 3 9 1 5 7 4
2 5 9 1 3 7 8 4 6

10
9wLzoNoP-49266731
AhCqwr33-82382645
ZWr3Ln4M-44636135
TKU8lJDt-85455653
LHMEdayB-24394171
fGCQYRRe-44206782
UDLLpsoM-34696360
v42Arzm9-89734437
Me8RED8Q-26635875
bS7Y9LRS-27410827
4 1 7 10 2 8 5 3 9 6
9 6 1 4 5 3 7 8 2 10
4 6 8 1 2 3 10 7 9 5

4
53WgfZjB-24375376
g8w2PodY-30118555
1I5CGmBI-77797514
MWwP8eXG-48507359
1 3 2 4
2 4 3 1

12
vjLLeZrz-44261829
LXV7cTZv-28906087
wLKNXlpd-48523704
mSblkY4Y-47170378
qajMNjjP-39877128
z9A4kZKV-72726109
emhdN_vR-69852667
8C1SUGW1-04255352
16MMJMKw-79190780
LC1lJFb7-24782766
6Z_3E0mr-50398900
kvGfv2jt-73492315
4 6 3 1 12 2 8 5 9 11 10 7
9 2 3 7 1 4 11 12 10 6 8 5
7 10 5 4 1 11 3 6 8 9 2 12
11 2 8 9 7 3 5 10 1 4 6 12
10 4 1 9 11 6 2 5 7 3 12 8

3
ZDMy_VQU-60781798
1ofELmVk-50632007
Ag3hDOb1-69150281
3 2 1
2 3 1
3 1 2
1 2 3
3 2 1
3 1 2
1 2 3

12
CCgaVxVi-01300258
fSRg2gN8-87507741
jJex60bj-25188211
Vc1M6Dx_-76965839
Zs3ke089-72243633
pg449f5d-34910666
PqzjtYZG-25051829
YSBsn4DO-51910713
nkoKOAy5-55271974
1b3eh7KE-65619745
fxE51lFt-81340552
d1j7eq1z-30208754
12 8 11 7 10 4 6 1 5 9 3 2
4 2 12 3 11 5 7 1 8 6 10 9
12 10 4 1 5 3 6 2 8 11 9 7
1 2 3 4 5 6 7 8 9 10 11 12
9 6 4 8 12 10 2 1 3 7 5 11

5
qEuDrw2X-59298343
R2axm0iV-32793400
pTVtsYf2-63433636
l6CaRGZk-54557367
FzKcWF7h-30621135
4 5 2 3 1
2 1 3 5 4
2 3 5 1 4

6
Ul6_4q7Q-28459002
snBlhQMM-81950647
_x0BTnWk-29463979
_u3R1RXk-80922016
ZoRXT8RG-87639639
cEtwDi69-20921879
5 4 1 3 6 2
2 1 5 6 4 3
3 4 2 6 1 5
2 4 5 6 1 3
4 3 5 2 1 6

2
qvW9D2tt-28663196
Ea6tYnX9-31397606
2 1
2 1
1 2
1 2
2 1

4
dGaCYHRd-75042916
nHqVo21p-42680682
ZTCZ0_Hj-60461446
fTFfoXTC-85818565
3 2 4 1
1 4 2 3
2 1 3 4
2 1 3 4
2 3 4 1
2 3 1 4
