21

7
59PrL4XW-36284865
YJrbbpvm-12338285
Yy6yyshP-13175359
Gr_P5U6W-50623654
p_uZFl_Y-87301054
dtmWLcDS-11902932
yyvlOPZG-30430428
6 7 5 3 2 1 4
1 5 3 4 6 2 7
1 2 3 4 5 6 7
3 2 5 4 7 6 1
1 2 3 4 5 6 7

7
3Rb4EueM-41227777
IW4Mp9Eh-10087756
WLr1e_pp-97209010
x9p15Q3O-95576851
ci3KxK7t-26263091
S5BU7QD_-00446769
czIxU3p2-29522518
1 2 5 4 3 6 7

7
3kJcjkL6-51766170
n9SrTeo8-51579136
dFLZcrHF-85366021
EEaDmH7y-96945440
Ll_AnMrG-77401137
kwc9XEgW-93008027
VcKOjkOD-74630010
1 2 7 4 3 6 5
7 3 1 2 5 6 4
1 2 6 4 5 3 7
1 2 3 5 4 6 7
7 6 3 4 1 5 2
6 1 3 4 2 5 7
1 2 3 7 5 6 4

7
jDMutwvW-90764917
nXbNmCJB-66680371
ZGVOiUdt-02392362
FNvSqPv2-09223074
aJLCMPBt-41736245
WIUAMazb-78011330
0M39WNqM-82027560
1 2 3 4 5 6 7

7
9oDXJFjd-52051105
idAIFrFJ-39869090
csXo2Xb9-88419461
iQ6p6Rbv-27193584
6rh3LRTQ-77667609
fRy41Wt0-70693307
teycLtl2-03079369
1 2 5 4 3 7 6
1 2 3 4 5 6 7
3 2 1 6 5 4 7
1 3 2 7 5 6 4
5 2 6 1 7 4 3
5 2 6 4 1 3 7
1 3 2 4 5 6 7

7
LSpkzi5G-47576229
96QY2bzy-26862926
giIdZd32-31109699
v9Lz1evG-53940121
2GNDTiXz-31521110
vKj9l1qZ-02484294
QKE5npU2-20497318
7 6 3 1 5 2 4
4 2 6 3 5 1 7
1 2 4 3 7 6 5

7
i3NOMAJ8-06627553
x2BZliLt-80062133
VbZ6HVSB-49008160
C_MopCXt-72963669
bPj07FJR-88437563
ORLQVUc8-45548160
UrZ_O9qe-66279236
6 2 3 4 7 1 5
1 2 3 4 5 6 7

7
Y2cv8Usf-98760386
gfYKMUT9-52725739
m0ScMTe5-88847283
p78XCqoj-70206847
pemIMS00-00536193
AMrnsKMV-04698781
B7_vzcia-14475889
1 6 7 4 2 5 3
3 2 6 4 5 1 7
1 4 7 6 2 3 5
3 2 7 4 1 6 5
1 2 3 4 7 6 5

7
YNsKgx6C-24120288
CLfmOUzA-91949589
1hNd0b6s-08608238
He7uimRA-79319725
DdtPIx2y-00435546
DriNxaSE-61103155
ciZKJ53k-64685722
3 4 1 2 5 6 7
6 2 3 4 1 7 5
1 2 3 4 5 7 6

7
erwOsLAB-03806019
5C9Fd7Sx-35753661
hkeMgsTq-96789137
oksYR2Dd-94629304
6Jh16D5G-23181410
MAZ6ebxF-72003004
OPqtZIqI-02188964
4 1 7 5 3 6 2
6 2 3 1 5 4 7
7 2 3 4 5 6 1
4 2 3 1 5 6 7
1 2 3 4 5 6 7
1 2 3 4 7 6 5

7
eILNunCy-58223028
Jxjm2YyO-87414542
aNHiyqE5-75921249
bpn1tD2j-06226373
Ne0fl2cH-49248958
GqGwm8rM-17398581
H6pKtAeH-53292113
7 2 3 4 5 6 1
1 2 3 4 6 5 7
3 5 1 4 2 6 7
1 2 3 4 5 6 7
2 4 5 1 3 6 7
7 2 3 4 1 6 5

7
18qW98i3-74392967
CNl1vBDY-01231466
C0zjpPGd-36773624
StGGfVuR-22743911
bhxvTo79-23161871
vMMLewUU-30309067
UJINQkJx-00475472
7 2 3 6 4 1 5
3 2 5 6 1 4 7
1 2 3 4 5 6 7
1 7 3 2 5 6 4
1 2 3 4 5 6 7
4 1 3 2 5 6 7

7
sc7bre2o-92720881
pp87g5t7-90618961
oVjDNwUm-15608087
fqVwZ8cz-30103873
6Qo2jNJ_-24422046
pG1OEdSk-38927586
LCyZb5HS-89479581
5 2 1 6 4 3 7
1 2 3 4 5 6 7
4 2 3 1 5 6 7
4 2 1 5 6 3 7

7
lIxhjuGS-78343782
et0ddZ78-00745054
7rWAvu8a-79288843
2lDVenuh-68796894
pYm51kSx-89889371
ecNkWYzT-01855104
3zpNd2ut-34990725
4 7 5 1 2 6 3
6 4 2 5 7 1 3
1 3 2 7 4 6 5
1 2 3 4 5 6 7
1 6 2 4 7 5 3
2 7 3 5 4 6 1

7
i4wjEEOA-83201340
NOlZ5oIP-40217624
ma3bwchA-79076828
E8OdCsZm-03782035
IDMPJcuI-19072880
WavrNNba-94440057
ZxMzp6cT-23432613
1 2 3 4 5 7 6
1 6 3 4 2 7 5
1 7 3 6 5 2 4
1 2 3 4 5 6 7

7
IZmy57X5-37422311
tAGitLFZ-68084629
K3dBGNus-53674020
MqMOQBaz-21373346
6PsQRmFO-27795018
bnjnC5Lb-50687258
3aU28jhK-50979990
4 2 3 1 6 7 5
1 2 4 3 5 6 7
1 2 3 4 5 6 7

7
7NZ72YlK-91379287
YXiPfj8v-36715792
YdWLaLKF-74844064
7eMlIBk1-43554506
MlbS5C2y-24261694
cIoG1cTl-65217560
PWE_Wg4e-79064136
3 2 6 4 5 7 1
2 1 5 7 6 4 3
1 5 3 2 7 4 6
7 2 3 4 6 5 1
3 2 1 5 4 6 7
1 2 3 4 5 6 7
2 1 3 6 5 4 7

7
WBmoW9Xa-54592668
tWJWfKOQ-38859223
cBtgDoc4-49575303
Hl__2Jih-69082890
kd7oLuIU-23977810
zR1qef4O-41591545
vD3Sfey5-87689103
1 2 5 4 3 6 7
1 2 3 4 5 6 7
3 2 4 7 5 1 6

7
f9c4fDya-53418111
1mKILf07-09477675
D2stHKrk-34548995
xt2hHoKY-95258647
aIPNAKGb-16699437
FMvCY2hT-13807027
i4kCCvox-77202674
1 2 3 4 5 6 7
1 2 4 7 3 5 6
5 3 4 2 7 6 1
1 2 3 4 5 6 7
1 3 5 6 2 7 4
4 5 3 2 1 6 7
1 2 5 4 3 6 7

7
H3X1Z00e-15616519
m_od2dPT-39953267
8vxY3ZeK-10186743
w430g_DB-80414740
QwH87wGI-93007808
mvKTNOfV-28288377
aVS8T3_J-59985963
2 1 3 4 5 6 7
1 2 3 4 5 6 7
1 5 2 6 3 4 7
2 1 3 4 7 6 5
3 1 7 2 5 6 4
6 5 3 4 2 7 1

7
F2VqbQq2-04941584
vGtkwVMz-26178108
JhjvQMhA-63705680
Vemr6YSP-94794386
qGCJU1sb-99414754
VPw6vGqM-06043956
SQywITGc-23937436
4 2 3 1 6 5 7
1 2 7 6 5 4 3
1 6 3 7 5 2 4
7 5 2 3 1 6 4
1 5 7 2 4 6 3
1 2 3 4 5 6 7
1 2 3 5 4 6 7
