Dvu90tzC-31112973
_XomHj3i-61182520

tbPS_amA-22581995

xoxzpjAe-75383299

pdFiFZhY-47375562

_fRdA0Yz-47795509

qgawSL2n-92140436

7RnGmFWG-87943501

g5FJHFsK-08572417
Tz1sBzRj-47599659

VYcSAxK5-00182721

9vCauDwb-81802495
T7dG2UHg-65036927

lzEZL8Cf-11917857

IgRgmQfB-68700324

YFyaUV6I-20717832

xHtenKLJ-16046569

XBYcSlu6-27162156

bz72AXl4-71949494

dpXCDZhj-12270329

326oBpUj-52956839

Th0Ia8vk-10735860

9ssMEpTR-66806199

bhlEAXth-19005357

FZXqhXg0-59897551

V1rUWvJ6-58456665

nDMjZWKE-95638244
EXnKzCod-77538522

sjwDr1Tz-49019906

IBS2KRIS-75092346
